{
  "preference": null,
  "pagination": {
    "total": 7862,
    "limit": 10,
    "offset": 0,
    "total_pages": 787,
    "current_page": 1
  },
  "data": [
    {
      "_score": 134.54277,
      "id": 656,
      "api_model": "artworks",
      "api_link": "https://api.artic.edu/api/v1/artworks/656",
      "is_boosted": false,
      "title": "Lion (One of a Pair, South Pedestal)",
      "thumbnail": {
        "lqip": "data:image/gif;base64,R0lGODlhCAAFAPUAADY5NTQ/PkI4IT1COjtEQkNHQk5YWFteWWtkTmtoX291WnJ1WX1xZ355cYZ3Zn+Cf42KaoWEeJOKfpeWcoCEgI2OiJaQgp+XgpWRiJWTjKKbjqqhkK+olbGml7q0q7e2sMG5rcbAs8fBuMrGv8/HvsnJud3d3evr7gAAAAAAAAAAAAAAAAAAAAAAAAAAAAAAAAAAAAAAAAAAAAAAAAAAAAAAAAAAAAAAAAAAAAAAAAAAAAAAAAAAAAAAAAAAAAAAACH5BAAAAAAALAAAAAAIAAUAAAYlQJPnIwKRQpPTyPDgQDaC0gUQIAwsDISjcUgUMB2JpkLJRBSLIAA7",
        "width": 8430,
        "height": 5620,
        "alt_text": "A bronze lion, deep green and muscular, looks out in the distance from its pedestal in front of the Art Institute of Chicago."
      },
      "timestamp": "2025-05-13T23:25:41-05:00"
    },
    {
      "_score": 119.03235,
      "id": 117241,
      "api_model": "artworks",
      "api_link": "https://api.artic.edu/api/v1/artworks/117241",
      "is_boosted": false,
      "title": "Girl with Cat",
      "thumbnail": {
        "lqip": "data:image/gif;base64,R0lGODlhBAAFAPQAACUiHCckHSghGi4nGislHi0mHjMvJDUuJDUwITcwIz07LUY+LUhALktGNExGNFFINGhYOWdcQXVlRYRmSAAAAAAAAAAAAAAAAAAAAAAAAAAAAAAAAAAAAAAAAAAAAAAAACH5BAAAAAAALAAAAAAEAAUAAAUR4EAwC3JMjxJJhgM1QSEkQAgAOw==",
        "width": 6486,
        "height": 7661,
        "alt_text": "A work made of oil on board."
      },
      "timestamp": "2025-05-13T22:34:47-05:00"
    },
    {
      "_score": 116.06513,
      "id": 45259,
      "api_model": "artworks",
      "api_link": "https://api.artic.edu/api/v1/artworks/45259",
      "is_boosted": false,
      "title": "Nude with Cats",
      "thumbnail": {
        "lqip": "data:image/gif;base64,R0lGODlhBAAFAPQAAFpcVVthVGBgSndvSW5hUWtlWHJvVWxpYHJ1bYd+an2Feo6Da4iGcZmTfqWdi6SgkK+rnLS7q7u4qb68rAAAAAAAAAAAAAAAAAAAAAAAAAAAAAAAAAAAAAAAAAAAAAAAACH5BAAAAAAALAAAAAAEAAUAAAURoBIIQ8QQBlIsDXAkzjNJUAgAOw==",
        "width": 4603,
        "height": 5060,
        "alt_text": "A work made of oil on cardboard."
      },
      "timestamp": "2025-05-13T22:19:34-05:00"
    },
    {
      "_score": 103.56144,
      "id": 16227,
      "api_model": "artworks",
      "api_link": "https://api.artic.edu/api/v1/artworks/16227",
      "is_boosted": false,
      "title": "Cat Making Up",
      "thumbnail": {
        "lqip": "data:image/gif;base64,R0lGODlhBAAFAPQAACAmNC0wPW1VOTw/SVlWUXBlVnV2doVnQ494WYx8aI+BboWAedipa4iOlYyQlI+UmaabkLKpmta2jKi52wAAAAAAAAAAAAAAAAAAAAAAAAAAAAAAAAAAAAAAAAAAAAAAACH5BAAAAAAALAAAAAAEAAUAAAURoAJNw5IUQEMggWNIwhMxRwgAOw==",
        "width": 1645,
        "height": 2250,
        "alt_text": "A color woodblock print of two orangeand white cats with pink noses represented in cubist-like design against a blue, gray and black background"
      },
      "timestamp": "2025-05-13T22:13:34-05:00"
    },
    {
      "_score": 97.04668,
      "id": 22482,
      "api_model": "artworks",
      "api_link": "https://api.artic.edu/api/v1/artworks/22482",
      "is_boosted": false,
      "title": "Homesickness",
      "thumbnail": {
        "lqip": "data:image/gif;base64,R0lGODlhBAAFAPQAAJB4cbqIcIp/irSQgrWXhbScjbGZlqqdqqicr66iusCklcGpm7m0zb+409LH0NPF09XJ1tbL1tnM2d7P3wAAAAAAAAAAAAAAAAAAAAAAAAAAAAAAAAAAAAAAAAAAAAAAACH5BAAAAAAALAAAAAAEAAUAAAURYCRBDtNMD5IIxxAARkEoSwgAOw==",
        "width": 1754,
        "height": 2250,
        "alt_text": "A work made of watercolor and gouache, over touches of graphite, on cream wove paper."
      },
      "timestamp": "2025-05-13T22:14:59-05:00"
    },
    {
      "_score": 93.49097,
      "id": 51719,
      "api_model": "artworks",
      "api_link": "https://api.artic.edu/api/v1/artworks/51719",
      "is_boosted": false,
      "title": "Winter: Cat on a Cushion",
      "thumbnail": {
        "lqip": "data:image/gif;base64,R0lGODlhBgAFAPQAAEI9JFFFLV5QPWVaOn1VR31rUHhpV3BnXHprWYBhRpJgUIdyU6VqW6pxXKR5WId9b458bcBvZcdwaM14btR3b9V8c9F/eI6Dc6uHeqKSfcORhtiVjdmWjt6ZkAAAAAAAACH5BAAAAAAALAAAAAAGAAUAAAUY4GUgxZI9QgAk2jE4CrNBhFVRHdZMkcSFADs=",
        "width": 2928,
        "height": 2250,
        "alt_text": "A work made of lithograph in 6 colors (red, ochre, yellow, black, gray-brown, brown) from two stones, with scraping on stone, on ivory wove paper."
      },
      "timestamp": "2025-05-13T22:21:09-05:00"
    },
    {
      "_score": 92.03815,
      "id": 158921,
      "api_model": "artworks",
      "api_link": "https://api.artic.edu/api/v1/artworks/158921",
      "is_boosted": false,
      "title": "Courtesan Playing with a Cat",
      "thumbnail": {
        "lqip": "data:image/gif;base64,R0lGODlhAwAFAPMAAK+RdLmlgryjhrCgiL2oj8KymsWzmMq2msvArMvBrNDBrNDGsdjLtNnOtwAAAAAAACH5BAAAAAAALAAAAAADAAUAAAQLMLFmRCvhDECWQhEAOw==",
        "width": 2039,
        "height": 3800,
        "alt_text": "A work made of hand-colored woodblock print; tan-e, vertical o-oban."
      },
      "timestamp": "2025-05-13T22:44:19-05:00"
    },
    {
      "_score": 91.726776,
      "id": 119335,
      "api_model": "artworks",
      "api_link": "https://api.artic.edu/api/v1/artworks/119335",
      "is_boosted": false,
      "title": "Baroque Pearl Mounted as a Cat Holding a Mouse",
      "thumbnail": {
        "lqip": "data:image/gif;base64,R0lGODlhBgAFAPQAAKGJbLOYdbKafMGhdJ6fn6eWgLSgiLCnnKKhoaWjpKakpaelpqenp66wtbKwsbSztLW0tLi3uLe5v7y9vsasjsO6ssK9vMPAvsfBvMXBwMTCwsLCxcjIyO3m3wAAAAAAACH5BAAAAAAALAAAAAAGAAUAAAUYILMoCUJAjxMczXR1QyFtBiUAEYdVVqaFADs=",
        "width": 2911,
        "height": 2250,
        "alt_text": "A work made of gold, enamel, and baroque pearl."
      },
      "timestamp": "2025-05-13T22:35:13-05:00"
    },
    {
      "_score": 91.33445,
      "id": 68825,
      "api_model": "artworks",
      "api_link": "https://api.artic.edu/api/v1/artworks/68825",
      "is_boosted": false,
      "title": "The Cats' Rendezvous",
      "thumbnail": {
        "lqip": "data:image/gif;base64,R0lGODlhBAAFAPQAAC0nHFpSRH92Z4V+boyDdJOId6KWh6GYiaacjKidja6lkq6klLKolrmunb6zosO4psK6qMe6qNHEstPItwAAAAAAAAAAAAAAAAAAAAAAAAAAAAAAAAAAAAAAAAAAAAAAACH5BAAAAAAALAAAAAAEAAUAAAURYIQs0zMojQBARxEwhOQkRggAOw==",
        "width": 1767,
        "height": 2250,
        "alt_text": "A work made of lithograph in black on ivory wove paper, laid down on ivory cloth."
      },
      "timestamp": "2025-05-13T23:20:20-05:00"
    },
    {
      "_score": 89.0876,
      "id": 9372,
      "api_model": "artworks",
      "api_link": "https://api.artic.edu/api/v1/artworks/9372",
      "is_boosted": false,
      "title": "The Large Cat",
      "thumbnail": {
        "lqip": "data:image/gif;base64,R0lGODlhBgAFAPQAADs2K0I9MkM/NFJNPFhSQV1XRGFaSGJcTGVfT2dhTWhhTW5nU25nVm9oV29pWXFqVXFrWXZuWHdwW3hwXoN6X4Z9YoR7ZIR7ZYZ9ZZCHcK6kibWrj8e8n8m/oQAAAAAAACH5BAAAAAAALAAAAAAGAAUAAAUYILRUlIIwwVAYxwREhHU1wpNgksZ1W+aEADs=",
        "width": 3000,
        "height": 2305,
        "alt_text": "A work made of engraving on ivory paper."
      },
      "timestamp": "2025-05-13T22:12:09-05:00"
    }
  ],
  "info": {
    "license_text": "The `description` field in this response is licensed under a Creative Commons Attribution 4.0 Generic License (CC-By) and the Terms and Conditions of artic.edu. All other data in this response is licensed under a Creative Commons Zero (CC0) 1.0 designation and the Terms and Conditions of artic.edu.",
    "license_links": [
      "https://creativecommons.org/publicdomain/zero/1.0/",
      "https://www.artic.edu/terms"
    ],
    "version": "1.13"
  },
  "config": {
    "iiif_url": "https://www.artic.edu/iiif/2",
    "website_url": "http://www.artic.edu"
  }
}